%YAML 1.1
%TAG !u! tag:unity3d.com,2011:
--- !u!114 &11400000
MonoBehaviour:
  m_ObjectHideFlags: 0
  m_CorrespondingSourceObject: {fileID: 0}
  m_PrefabInstance: {fileID: 0}
  m_PrefabAsset: {fileID: 0}
  m_GameObject: {fileID: 0}
  m_Enabled: 1
  m_EditorHideFlags: 0
  m_Script: {fileID: 11500000, guid: 72a4d6c96459b7f4ba08dacff66563be, type: 3}
  m_Name: Ranged
  m_EditorClassIdentifier: 
  MoveSpeed: 2
  Speed: 0.5
  TurnSpeed: 6
  AttackRange: 4
