%YAML 1.1
%TAG !u! tag:unity3d.com,2011:
--- !u!114 &11400000
MonoBehaviour:
  m_ObjectHideFlags: 0
  m_CorrespondingSourceObject: {fileID: 0}
  m_PrefabInstance: {fileID: 0}
  m_PrefabAsset: {fileID: 0}
  m_GameObject: {fileID: 0}
  m_Enabled: 1
  m_EditorHideFlags: 0
  m_Script: {fileID: 11500000, guid: d4a61ffdca371884c9352bfe42026c7b, type: 3}
  m_Name: EmptyItem
  m_EditorClassIdentifier: 
  Icon: {fileID: 21300000, guid: b7299af5b387ba8499fedca1c8e9e373, type: 3}
